--- !ruby/struct:Dumper::Page
name: ne_ta_ale_profile
path: /users/profile/ne_ta_ale/
info:
  :nickname: ne_ta_ale
  :fullname: Іванна Шкромида
  :posts: 61
html: ! "<!DOCTYPE HTML PUBLIC \"-//W3C//DTD HTML 4.01//EN\" \"http://www.w3.org/TR/html4/strict.dtd\">\n<html>\n<head>\n
  \   <title>\n        \n            Літклуб | Іванна Шкромида ( ne_ta_ale )\n        \n
  \   </title>\n\n    <meta http-equiv=\"Content-type\" content=\"text/html; charset=utf-8\">\n
  \   <link href=\"http://188.121.37.240:80/media/css/main_001.css\" rel=\"stylesheet\"
  type=\"text/css\">\n\n    <link rel=\"alternate\" type=\"application/rss+xml\" title=\"RSS\"
  href=\"/feeds/texts/\"/>\n\n    <link rel=\"stylesheet\" type=\"text/css\" href=\"http://yui.yahooapis.com/2.8.2r1/build/assets/skins/sam/skin.css\">\n
  \   <script src=\"http://yui.yahooapis.com/2.8.2r1/build/yahoo-dom-event/yahoo-dom-event.js\"></script>\n
  \   <script src=\"http://yui.yahooapis.com/2.8.2r1/build/element/element-min.js\"></script>\n
  \   <!-- Needed for Menus, Buttons and Overlays used in the Toolbar -->\n    <script
  src=\"http://yui.yahooapis.com/2.8.2r1/build/container/container_core-min.js\"></script>\n
  \   <script src=\"http://yui.yahooapis.com/2.8.2r1/build/menu/menu-min.js\"></script>\n
  \   <script src=\"http://yui.yahooapis.com/2.8.2r1/build/button/button-min.js\"></script>\n
  \   <!-- Source file for Rich Text Editor-->\n    <script src=\"http://yui.yahooapis.com/2.8.2r1/build/editor/editor-min.js\"></script>\n\n
  \   <script>\n        function do_it(theURL, mess) {\n            if (confirm(mess))
  {\n                window.location.href = theURL;\n            } else {\n            }\n
  \       }\n    </script>\n\n    <script type=\"text/javascript\">\n\n        var
  _gaq = _gaq || [];\n        _gaq.push(['_setAccount', 'UA-19557794-1']);\n        _gaq.push(['_trackPageview']);\n\n
  \       (function() {\n            var ga = document.createElement('script');\n
  \           ga.type = 'text/javascript';\n            ga.async = true;\n            ga.src
  = ('https:' == document.location.protocol ? 'https://ssl' : 'http://www') + '.google-analytics.com/ga.js';\n
  \           var s = document.getElementsByTagName('script')[0];\n            s.parentNode.insertBefore(ga,
  s);\n        })();\n\n        function fixImage(image) {\n            image.removeAttribute('width');\n
  \           image.removeAttribute('height');\n            var width = image.naturalWidth;\n
  \           var height = image.naturalHeight;\n            var maxSize = 150;\n\n
  \           if (height > maxSize || width > maxSize) {\n                if (height
  > width) {\n                    width = width * maxSize / height;\n                    height
  = maxSize;\n                } else {\n                    height = height * maxSize
  / width;\n                    width = maxSize;\n                }\n            }\n\n
  \           image.height = height;\n            image.width = width;\n        }\n\n
  \   </script>\n\n</head>\n<body>\n<div id=\"top\">\n    <div id=\"top_left\"><a
  href=\"/\">На першу сторінку</a></div>\n    <div id=\"top_right\">\n        \n        <div
  class=text style='width: 150px;'>&nbsp;</div>\n        \n            <a href=\"/users/register/\">Реєстрація</a><a
  href=\"/users/login/\">Зайти</a>\n        \n    </div>\n</div>\n\n<center>\n    <table
  border=\"0\">\n        <tr>\n            <td colspan=\"7\" align=\"center\">\n                <a
  href=\"/\"><img id=\"imgLitClub\" src=\"http://188.121.37.240:80/media/images/menu/litclub_logo_small.png\"\n
  \                    style=\"width:375px; height:125px;\" alt=\"ЛітКлуб лого\"/>\n
  \               </a>\n            </td>\n        </tr>\n        <tr>\n            <td
  width=\"150px\">\n                <a href=\"/texts/list\"><img src=\"http://188.121.37.240:80/media/images/menu/all_poetry.png\"
  style=\"border:0px;\"\n                                              alt=\"всі твори\"/></a>\n
  \           </td>\n            <td width=\"110px\">\n                <a href=\"/texts/list/1\"><img
  src=\"http://188.121.37.240:80/media/images/menu/prose.png\" style=\"border:0px;\"\n
  \                                             alt=\"проза\"/></a>\n            </td>\n
  \           <td width=\"110px\">\n                <a href=\"/texts/list/2/\"><img
  src=\"http://188.121.37.240:80/media/images/menu/poetry.png\" style=\"border:0px;\"\n
  \                                             alt=\"поезія\"/></a>\n            </td>\n
  \           <td width=\"90px\">\n                <a href=\"/texts/list/3\"><img
  src=\"http://188.121.37.240:80/media/images/menu/other.png\" style=\"border:0px;\"
  alt=\"інше\"/></a>\n            </td>\n            <td width=\"120px\">\n                <a
  href=\"/texts/list/5/\"><img src=\"http://188.121.37.240:80/media/images/menu/reviews.png\"
  style=\"border:0px;\"\n                                              alt=\"рецензії\"/></a>\n
  \           </td>\n            <td width=\"120px\">\n                <a href=\"/texts/list/4/\"><img
  src=\"http://188.121.37.240:80/media/images/menu/forum.png\" style=\"border:0px;\"
  alt=\"форум\"/></a>\n            </td>\n            <td>\n                <a href=\"/users/list/\"><img
  src=\"http://188.121.37.240:80/media/images/menu/author.png\" style=\"border:0px;\"
  alt=\"автор\"/></a>\n            </td>\n        </tr>\n    </table>\n</center>\n\n<!--<div
  style='float: right; margin-right: 10px; text-align: right;'><a style='color: #080;
  text-decoration: none; font: 14px Times;' href=/texts/show/3223/>Що трапилося з
  Літклубом?</a></div>-->\n<div class=line></div>\n<div class=spacer></div>\n\n\n\n\n\n<div
  id=\"wrapper\">\n    \n    \n    <div id=\"content-container\">\n        <div id=\"content\">\n
  \           \n\n<table width=100% cellspacing=0 style=\"padding-left:100px; padding-top:20px;
  text-align:left;\">\n    <tr valign=\"top\">\n        <td valign=\"top\" width=\"200px\">\n\n
  \           <div class=spacer></div>\n            \n                <img class=userpic
  src=\"http://188.121.37.240:80/media/userpics/4556\" alt=\"\" class=userpic>\n            \n\n
  \           <div class=spacer></div>\n            <div class=spacer></div>\n\n            \n
  \               <a href=\"/users/profile/ne_ta_ale\">Творчість</a> <br>\n                <a
  href=\"/users/subscription/4556\">Підписка</a> <br>\n                <a href=\"/users/favorite/texts/4556\">Улюблене</a>\n
  \           \n        </td>\n\n        <td>\n            \n                <h1>Іванна
  Шкромида</h1>\n                ne_ta_ale<br>\n            \n            \n\n    \n\n
  \   <h2>Творів: 61</h2>\n\n    <div class=spacer></div>\n\n    \n        \n        \n
  \           Проза\n            <div style='margin: 3px 0 12px 20px; padding: 0;'>\n
  \               \n\n                    <div style='margin-bottom: 4px; text-align:
  left;'><a\n                            href=\"/texts/show/31087/\">Кімната</a>\n
  \                   </div>\n                \n\n                    <div style='margin-bottom:
  4px; text-align: left;'><a\n                            href=\"/texts/show/30400/\">Літають
  замість</a>\n                    </div>\n                \n\n                    <div
  style='margin-bottom: 4px; text-align: left;'><a\n                            href=\"/texts/show/29633/\">Порохівниці
  \ мого  тіла</a>\n                    </div>\n                \n\n                    <div
  style='margin-bottom: 4px; text-align: left;'><a\n                            href=\"/texts/show/27887/\">Межею</a>\n
  \                   </div>\n                \n\n                    <div style='margin-bottom:
  4px; text-align: left;'><a\n                            href=\"/texts/show/27551/\">...
  вчора падав дощ</a>\n                    </div>\n                \n            </div>\n
  \       \n            Поезія\n            <div style='margin: 3px 0 12px 20px; padding:
  0;'>\n                \n\n                    <div style='margin-bottom: 4px; text-align:
  left;'><a\n                            href=\"/texts/show/31272/\">Не в обличчя</a>\n
  \                   </div>\n                \n\n                    <div style='margin-bottom:
  4px; text-align: left;'><a\n                            href=\"/texts/show/31200/\">Міжсезоння</a>\n
  \                   </div>\n                \n\n                    <div style='margin-bottom:
  4px; text-align: left;'><a\n                            href=\"/texts/show/31155/\">Декади</a>\n
  \                   </div>\n                \n\n                    <div style='margin-bottom:
  4px; text-align: left;'><a\n                            href=\"/texts/show/31116/\">Я
  тебе ще не знаю</a>\n                    </div>\n                \n\n                    <div
  style='margin-bottom: 4px; text-align: left;'><a\n                            href=\"/texts/show/31055/\">Процес</a>\n
  \                   </div>\n                \n\n                    <div style='margin-bottom:
  4px; text-align: left;'><a\n                            href=\"/texts/show/31045/\">Зубожіння
  до кісток</a>\n                    </div>\n                \n\n                    <div
  style='margin-bottom: 4px; text-align: left;'><a\n                            href=\"/texts/show/30904/\">Сльота</a>\n
  \                   </div>\n                \n\n                    <div style='margin-bottom:
  4px; text-align: left;'><a\n                            href=\"/texts/show/30798/\">Велетні</a>\n
  \                   </div>\n                \n\n                    <div style='margin-bottom:
  4px; text-align: left;'><a\n                            href=\"/texts/show/30747/\">Перевтрати</a>\n
  \                   </div>\n                \n\n                    <div style='margin-bottom:
  4px; text-align: left;'><a\n                            href=\"/texts/show/30711/\">Чайкоподібна</a>\n
  \                   </div>\n                \n\n                    <div style='margin-bottom:
  4px; text-align: left;'><a\n                            href=\"/texts/show/30650/\">Ці
  весни нестрижені</a>\n                    </div>\n                \n\n                    <div
  style='margin-bottom: 4px; text-align: left;'><a\n                            href=\"/texts/show/30615/\">Придорожні
  рутини</a>\n                    </div>\n                \n\n                    <div
  style='margin-bottom: 4px; text-align: left;'><a\n                            href=\"/texts/show/30491/\">Займай
  місця</a>\n                    </div>\n                \n\n                    <div
  style='margin-bottom: 4px; text-align: left;'><a\n                            href=\"/texts/show/30424/\">Подряпини
  короткочасності</a>\n                    </div>\n                \n\n                    <div
  style='margin-bottom: 4px; text-align: left;'><a\n                            href=\"/texts/show/30358/\">Котячі
  сугестії</a>\n                    </div>\n                \n\n                    <div
  style='margin-bottom: 4px; text-align: left;'><a\n                            href=\"/texts/show/30328/\">Зникнення</a>\n
  \                   </div>\n                \n\n                    <div style='margin-bottom:
  4px; text-align: left;'><a\n                            href=\"/texts/show/30196/\">Стань
  мені послухом</a>\n                    </div>\n                \n\n                    <div
  style='margin-bottom: 4px; text-align: left;'><a\n                            href=\"/texts/show/30127/\">Завіса
  мільйонних</a>\n                    </div>\n                \n\n                    <div
  style='margin-bottom: 4px; text-align: left;'><a\n                            href=\"/texts/show/30054/\">Легка
  інвалідність</a>\n                    </div>\n                \n\n                    <div
  style='margin-bottom: 4px; text-align: left;'><a\n                            href=\"/texts/show/30024/\">Навмисно
  посеред ночі</a>\n                    </div>\n                \n\n                    <div
  style='margin-bottom: 4px; text-align: left;'><a\n                            href=\"/texts/show/29798/\">апатичне</a>\n
  \                   </div>\n                \n\n                    <div style='margin-bottom:
  4px; text-align: left;'><a\n                            href=\"/texts/show/29751/\">сліпий
  листоноша</a>\n                    </div>\n                \n\n                    <div
  style='margin-bottom: 4px; text-align: left;'><a\n                            href=\"/texts/show/29605/\">Зі
  скреготу зим</a>\n                    </div>\n                \n\n                    <div
  style='margin-bottom: 4px; text-align: left;'><a\n                            href=\"/texts/show/29294/\">Нашу
  відстань ковтали ...</a>\n                    </div>\n                \n\n                    <div
  style='margin-bottom: 4px; text-align: left;'><a\n                            href=\"/texts/show/29241/\">Я
  не знаю, ким був ти...</a>\n                    </div>\n                \n\n                    <div
  style='margin-bottom: 4px; text-align: left;'><a\n                            href=\"/texts/show/29076/\">Канони
  відсутні</a>\n                    </div>\n                \n\n                    <div
  style='margin-bottom: 4px; text-align: left;'><a\n                            href=\"/texts/show/28974/\">У
  виграші - відстань</a>\n                    </div>\n                \n\n                    <div
  style='margin-bottom: 4px; text-align: left;'><a\n                            href=\"/texts/show/28929/\">Скільки
  життів ти зіграла?</a>\n                    </div>\n                \n\n                    <div
  style='margin-bottom: 4px; text-align: left;'><a\n                            href=\"/texts/show/28891/\">Білокрилі
  приблуди міжхмар&#39;я</a>\n                    </div>\n                \n\n                    <div
  style='margin-bottom: 4px; text-align: left;'><a\n                            href=\"/texts/show/28803/\">Тихо-тихо
  ідуть</a>\n                    </div>\n                \n\n                    <div
  style='margin-bottom: 4px; text-align: left;'><a\n                            href=\"/texts/show/28693/\">ці
  спазми в ногах...</a>\n                    </div>\n                \n\n                    <div
  style='margin-bottom: 4px; text-align: left;'><a\n                            href=\"/texts/show/28649/\">Сірість
  приховує справжніх</a>\n                    </div>\n                \n\n                    <div
  style='margin-bottom: 4px; text-align: left;'><a\n                            href=\"/texts/show/28127/\">Штиль</a>\n
  \                   </div>\n                \n\n                    <div style='margin-bottom:
  4px; text-align: left;'><a\n                            href=\"/texts/show/28066/\">Протидіюче</a>\n
  \                   </div>\n                \n\n                    <div style='margin-bottom:
  4px; text-align: left;'><a\n                            href=\"/texts/show/28065/\">Ти
  вдома?</a>\n                    </div>\n                \n\n                    <div
  style='margin-bottom: 4px; text-align: left;'><a\n                            href=\"/texts/show/27058/\">Досі
  в тобі , і досить  мені дорікати</a>\n                    </div>\n                \n\n
  \                   <div style='margin-bottom: 4px; text-align: left;'><a\n                            href=\"/texts/show/26967/\">На
  пристані</a>\n                    </div>\n                \n\n                    <div
  style='margin-bottom: 4px; text-align: left;'><a\n                            href=\"/texts/show/26715/\">осінь
  \ чіпляє  твоє  підборіддя  вереснем</a>\n                    </div>\n                \n\n
  \                   <div style='margin-bottom: 4px; text-align: left;'><a\n                            href=\"/texts/show/26703/\">ти
  хотіла зігріти себе гарячим пластиліном</a>\n                    </div>\n                \n\n
  \                   <div style='margin-bottom: 4px; text-align: left;'><a\n                            href=\"/texts/show/26633/\">янголи
  \ ,  що  живуть  навпроти,</a>\n                    </div>\n                \n\n
  \                   <div style='margin-bottom: 4px; text-align: left;'><a\n                            href=\"/texts/show/26520/\">місто
  грає тобою в шахи</a>\n                    </div>\n                \n\n                    <div
  style='margin-bottom: 4px; text-align: left;'><a\n                            href=\"/texts/show/26289/\">тільки
  \ так  пахнуть  дощові  антени...</a>\n                    </div>\n                \n\n
  \                   <div style='margin-bottom: 4px; text-align: left;'><a\n                            href=\"/texts/show/26276/\">під
  шкірою тягне</a>\n                    </div>\n                \n\n                    <div
  style='margin-bottom: 4px; text-align: left;'><a\n                            href=\"/texts/show/26215/\">та
  кшталт &quot;компота&quot;</a>\n                    </div>\n                \n\n
  \                   <div style='margin-bottom: 4px; text-align: left;'><a\n                            href=\"/texts/show/26148/\">сонце
  під ногами</a>\n                    </div>\n                \n\n                    <div
  style='margin-bottom: 4px; text-align: left;'><a\n                            href=\"/texts/show/26145/\">ігри
  розуму</a>\n                    </div>\n                \n\n                    <div
  style='margin-bottom: 4px; text-align: left;'><a\n                            href=\"/texts/show/26082/\">мій
  візаві, ти схожий на витоки свіжого кисню</a>\n                    </div>\n                \n\n
  \                   <div style='margin-bottom: 4px; text-align: left;'><a\n                            href=\"/texts/show/26046/\">прострація</a>\n
  \                   </div>\n                \n\n                    <div style='margin-bottom:
  4px; text-align: left;'><a\n                            href=\"/texts/show/26042/\">Краса
  в божевіллі</a>\n                    </div>\n                \n\n                    <div
  style='margin-bottom: 4px; text-align: left;'><a\n                            href=\"/texts/show/26002/\">між
  рекламних роликів</a>\n                    </div>\n                \n\n                    <div
  style='margin-bottom: 4px; text-align: left;'><a\n                            href=\"/texts/show/25974/\">сум&#39;яття</a>\n
  \                   </div>\n                \n\n                    <div style='margin-bottom:
  4px; text-align: left;'><a\n                            href=\"/texts/show/25970/\">Псевдожиття</a>\n
  \                   </div>\n                \n\n                    <div style='margin-bottom:
  4px; text-align: left;'><a\n                            href=\"/texts/show/25968/\">Можеш
  \ залишатися  загадковим </a>\n                    </div>\n                \n\n
  \                   <div style='margin-bottom: 4px; text-align: left;'><a\n                            href=\"/texts/show/25941/\">Якби
  сни одягали в&#39;язані светри</a>\n                    </div>\n                \n\n
  \                   <div style='margin-bottom: 4px; text-align: left;'><a\n                            href=\"/texts/show/25940/\">Затримка
  бачення за вікном</a>\n                    </div>\n                \n\n                    <div
  style='margin-bottom: 4px; text-align: left;'><a\n                            href=\"/texts/show/25939/\">Знаєш,
  я закохувалась у тебе тричі</a>\n                    </div>\n                \n
  \           </div>\n        \n    \n\n   \n\n        </td>\n    </tr>\n</table>\n\n\n
  \       </div>\n    </div>\n</div>\n<div id=\"right-container\">\n    <div id=\"right\">\n
  \       \n    </div>\n</div>\n\n\n\n\n<div id=\"footer\">\n    <p>&copy; Всі права
  на тексти належать їх авторам.<br>\n        &copy; <a href=\"mailto:litclubua@gmail.com\">LitClub</a>\n
  \   </p>\n    \n</div>\n\n</body>\n</html>"
