--- !ruby/struct:Dumper::Page
name: prose
path: /texts/show/31087/
info: 
  :id: 31087
  :title: "Кімната"
  :content: "Присівши на другий стілець зліва, чоловік відчув приємне рипіння, яке підсилював незначними похитуваннями ноги."
html: ! "<!DOCTYPE HTML PUBLIC \"-//W3C//DTD HTML 4.01//EN\" \"http://www.w3.org/TR/html4/strict.dtd\">\n<html>\n<head>\n
  \   <title>\n        \n            Літклуб | Кімната, Іванна Шкромида ( ne_ta_ale
  )\n        \n    </title>\n\n    <meta http-equiv=\"Content-type\" content=\"text/html;
  charset=utf-8\">\n    <link href=\"http://188.121.37.240:80/media/css/main_001.css\"
  rel=\"stylesheet\" type=\"text/css\">\n\n    <link rel=\"alternate\" type=\"application/rss+xml\"
  title=\"RSS\" href=\"/feeds/texts/\"/>\n\n    <link rel=\"stylesheet\" type=\"text/css\"
  href=\"http://yui.yahooapis.com/2.8.2r1/build/assets/skins/sam/skin.css\">\n    <script
  src=\"http://yui.yahooapis.com/2.8.2r1/build/yahoo-dom-event/yahoo-dom-event.js\"></script>\n
  \   <script src=\"http://yui.yahooapis.com/2.8.2r1/build/element/element-min.js\"></script>\n
  \   <!-- Needed for Menus, Buttons and Overlays used in the Toolbar -->\n    <script
  src=\"http://yui.yahooapis.com/2.8.2r1/build/container/container_core-min.js\"></script>\n
  \   <script src=\"http://yui.yahooapis.com/2.8.2r1/build/menu/menu-min.js\"></script>\n
  \   <script src=\"http://yui.yahooapis.com/2.8.2r1/build/button/button-min.js\"></script>\n
  \   <!-- Source file for Rich Text Editor-->\n    <script src=\"http://yui.yahooapis.com/2.8.2r1/build/editor/editor-min.js\"></script>\n\n
  \   <script>\n        function do_it(theURL, mess) {\n            if (confirm(mess))
  {\n                window.location.href = theURL;\n            } else {\n            }\n
  \       }\n    </script>\n\n    <script type=\"text/javascript\">\n\n        var
  _gaq = _gaq || [];\n        _gaq.push(['_setAccount', 'UA-19557794-1']);\n        _gaq.push(['_trackPageview']);\n\n
  \       (function() {\n            var ga = document.createElement('script');\n
  \           ga.type = 'text/javascript';\n            ga.async = true;\n            ga.src
  = ('https:' == document.location.protocol ? 'https://ssl' : 'http://www') + '.google-analytics.com/ga.js';\n
  \           var s = document.getElementsByTagName('script')[0];\n            s.parentNode.insertBefore(ga,
  s);\n        })();\n\n        function fixImage(image) {\n            image.removeAttribute('width');\n
  \           image.removeAttribute('height');\n            var width = image.naturalWidth;\n
  \           var height = image.naturalHeight;\n            var maxSize = 150;\n\n
  \           if (height > maxSize || width > maxSize) {\n                if (height
  > width) {\n                    width = width * maxSize / height;\n                    height
  = maxSize;\n                } else {\n                    height = height * maxSize
  / width;\n                    width = maxSize;\n                }\n            }\n\n
  \           image.height = height;\n            image.width = width;\n        }\n\n
  \   </script>\n\n</head>\n<body>\n<div id=\"top\">\n    <div id=\"top_left\"><a
  href=\"/\">На першу сторінку</a></div>\n    <div id=\"top_right\">\n        \n        <div
  class=text style='width: 150px;'>&nbsp;</div>\n        \n            <a href=\"/users/register/\">Реєстрація</a><a
  href=\"/users/login/\">Зайти</a>\n        \n    </div>\n</div>\n\n<center>\n    <table
  border=\"0\">\n        <tr>\n            <td colspan=\"7\" align=\"center\">\n                <a
  href=\"/\"><img id=\"imgLitClub\" src=\"http://188.121.37.240:80/media/images/menu/litclub_logo_small.png\"\n
  \                    style=\"width:375px; height:125px;\" alt=\"ЛітКлуб лого\"/>\n
  \               </a>\n            </td>\n        </tr>\n        <tr>\n            <td
  width=\"150px\">\n                <a href=\"/texts/list\"><img src=\"http://188.121.37.240:80/media/images/menu/all_poetry.png\"
  style=\"border:0px;\"\n                                              alt=\"всі твори\"/></a>\n
  \           </td>\n            <td width=\"110px\">\n                <a href=\"/texts/list/1\"><img
  src=\"http://188.121.37.240:80/media/images/menu/prose.png\" style=\"border:0px;\"\n
  \                                             alt=\"проза\"/></a>\n            </td>\n
  \           <td width=\"110px\">\n                <a href=\"/texts/list/2/\"><img
  src=\"http://188.121.37.240:80/media/images/menu/poetry.png\" style=\"border:0px;\"\n
  \                                             alt=\"поезія\"/></a>\n            </td>\n
  \           <td width=\"90px\">\n                <a href=\"/texts/list/3\"><img
  src=\"http://188.121.37.240:80/media/images/menu/other.png\" style=\"border:0px;\"
  alt=\"інше\"/></a>\n            </td>\n            <td width=\"120px\">\n                <a
  href=\"/texts/list/5/\"><img src=\"http://188.121.37.240:80/media/images/menu/reviews.png\"
  style=\"border:0px;\"\n                                              alt=\"рецензії\"/></a>\n
  \           </td>\n            <td width=\"120px\">\n                <a href=\"/texts/list/4/\"><img
  src=\"http://188.121.37.240:80/media/images/menu/forum.png\" style=\"border:0px;\"
  alt=\"форум\"/></a>\n            </td>\n            <td>\n                <a href=\"/users/list/\"><img
  src=\"http://188.121.37.240:80/media/images/menu/author.png\" style=\"border:0px;\"
  alt=\"автор\"/></a>\n            </td>\n        </tr>\n    </table>\n</center>\n\n<!--<div
  style='float: right; margin-right: 10px; text-align: right;'><a style='color: #080;
  text-decoration: none; font: 14px Times;' href=/texts/show/3223/>Що трапилося з
  Літклубом?</a></div>-->\n<div class=line></div>\n<div class=spacer></div>\n\n\n\n\n\n<div
  id=\"wrapper\">\n    \n    \n    <div id=\"content-container\">\n        <div id=\"content\">\n
  \           \n\n<style type=\"text/css\">\n    div#content p:first-letter {margin-left:
  2em;}\n    img.favorite{border:0px;}\n</style>\n    \n<script type=\"text/javascript\"
  src=\"http://vkontakte.ru/js/api/share.js?10\" charset=\"windows-1251\"></script>\n\n<script
  type=\"text/javascript\" src=\"http://188.121.37.240:80/media/tiny_mce/tiny_mce.js\"></script>\n<script
  type=\"text/javascript\">\n    // init tinyMCE\n    tinyMCE.init({\n        mode
  : \"none\",\n        content_css : \"http://188.121.37.240:80/media/css/main_001.css\",\n
  \       theme : \"simple\",\n        setup : function(ed) {\n            ed.onKeyPress.add(function(ed,
  e) {\n                getKeystroke(e);\n            });\n        }\n    });\n\n
  \   // process key pressing in tinyMCE\n    function getKeystroke(e) {\n        var
  keynum = e.keyCode ? e.keyCode : e.which;\n\n        /* only interested in CTRL
  */\n        if (e.ctrlKey == 1) {\n            /* enter key and fix for chrome*/\n
  \           if(keynum == 13 || keynum == 10){\n                document.getElementById(\"add_comment_form\").submit();\n
  \           }\n        }\n    }\n</script>\n\n<script type=\"text/javascript\">\n\n
  \   function quickReply(id) {\n        tinyMCE.execCommand('mceRemoveControl', false,
  'comment');\n\n        qrForm = document.getElementById('qr');\n        qrForm.style.display
  = '';\n        parentId = document.getElementById('parent');\n        parentId.value
  = id;\n        if (id == 'b' || id == 't') {\n            parentId.value = 0\n        }
  else {\n            parentId.value = id\n        }\n        document.getElementById('qr'
  + id).appendChild(qrForm);\n\n        // loads captcha\n        captcha = document.getElementById('captcha_img');\n
  \       if (captcha) {\n            if (!captcha.src) {\n                captcha.src
  = \"/captcha/\" + document.getElementById('captcha_sid').value + \".gif\";\n                document.getElementById('captcha_img_label').style.display
  = '';\n                captcha.onload = function(e) {\n                    document.getElementById('captcha_img_label').style.display
  = 'none';\n                };\n            }\n        }\n\n        tinyMCE.execCommand('mceAddControl',
  false, 'comment');\n    }\n</script>\n\n    <div class=spacer></div>\n    <index>\n\n
  \       <table align=\"right\" border=\"0\" cellpadding=\"0\" cellspacing=\"0\"
  style=\"height:0%;padding-top:5px;padding-right:20px\">\n            <tr>\n                <td
  valign=\"top\">\n                    \n                </td>\n                <td
  valign=\"top\">\n                     <!-- Put this script tag to the place, where
  the Share button will be -->\n                    <div align=\"right\">\n                    <script
  type=\"text/javascript\">\n                        document.write(VK.Share.button({\n
  \                           url: 'http://litclub.org.ua/texts/show/31087/',\n                            title:
  'Кімната ( Іванна Шкромида )',\n                            description: 'Літклуб,
  найкращий осередок талановитих авторів',\n                            image: 'http://188.121.37.240:80/media/images/logo_vk.png',\n
  \                           noparse: true\n                        }, {type: \"custom\",
  text: \"<img src=\\\"http://vk.com/images/vk32.png?1\\\" width=\\\"25\\\" height=\\\"25\\\"
  class=\\\"favorite\\\" title=\\\"Send to VK\\\" />\"}));\n                    </script>\n
  \                   </div>\n                </td>\n            </tr>\n        </table>\n\n
  \       <h1>Кімната</h1>\n\n        <div class=h1_date>\n            <b>Іванна Шкромида</b>,
  23.04.2013 року</div>\n\n        \n\n        \n\n\n        \n        <br/>\n        <br/>\n
  \       <br/>\n        <p>Декілька стільців, що мешкали в кімнаті, стояли, як звично,
  \ –  розхитано й самотньо.  Оминаючи ряд своїх втомлених одинаків,  цей чоловік,
  \ між стиснутих вуст якого  дружньо мостилися бешкетувати цигарка за цигаркою, щоразу
  на кінчику язика відчував якесь пощипування, наче кортіло сказати звичну нісенітницю,
  однак мовчанка видавалася більш влучною. Старанно випрасувана сорочка на дещо зморщеному
  тілі свідчила про присутність жінки. Присівши на другий стілець зліва, чоловік відчув
  приємне рипіння, яке підсилював незначними похитуваннями ноги.  Від цього ритмічного
  тандему починала мелодійно скрипіти підлога. Згодом на авансцену звукового ряду
  виходила метушня вуличного набережного містечка, яке різко поколювало вигуками прорізи
  між давно облущеними віконними рамами.</p>\n<p>Уже за декілька секунд можна було
  почути тихе наспівування традиційного французького мотиву – так тривожно звучав
  сьогодні Її приглушений голос. Чоловік, насолодившись ранковою рапсодією, нарешті
  вільно опускав тіло на спинку стільця і продовгувато зітхав.</p>\n<p>–      Ти заварила
  мені кави?</p>\n<p>Відсутність годинника давала поштовх до рахування вголос. І якщо
  раніше кожну четвертину години Він долав черговим викинутим недопалком, то тепер
  ці транзитні часові перевезення все більше й більше пошкоджували нервові колії тіла.</p>\n<p>–\tЗрештою,
  час легше  вирахувати за кількістю зим, –  зовсім раптово й наче, звертаючись до
  себе самого, промовив чоловік.</p>\n<p>Його масивні  руки протирали на штанях дірки.
  Так нестерпно Йому хотілося, щоб хоча б сьогодні Її слова були влучними. Він чекав
  з нетерпінням на свіжу порцію друкованого тексту, яку от-от Вона мала принести йому
  задля насолоди. Ця вперта противага легкодоступності, коли терпінню приходив кінець
  \ і доводилося  порціями приносити в жертву уже знайомі рядки Її віршів. «Чекання
  неабияк втомлює розум», – єдине, що спадало Йому зараз на думку. І,  нарешті, зовсім
  зубожівши під натиском часу, забувши про відсутність поряд будь-кого,  Він починав
  говорити. Його вуста чітко декламували зворушливі і водночас тверді, як моноліти,
  поетичні рядки. Імпульсивність викладу зростала посекундно. Ось Він уже, ледь торкаючись
  пальцями ніг досі скрипучої підлоги, вперто дивився поперед себе і наче чув відгомін
  щойно промовлених віршів у щілинах стін, вікон, дверей, паркету... Тепер позад нього
  стояли сотні облич, уста яких одноголосно нашіптували щось від Неї. І ця гармонійна
  кімната ставала тим затишком, якого так прагнуть душа і тіло разом та поодинці.</p>\n<p>Деякі
  обличчя наближалися до нього впритул, присідали на порожні стільці, утворюючи ряд
  химерних голів, що ритмічно похитувалися разом… Всі вони дивилися вперед, тільки
  вперед. Посидівши, одні піднімалися і виходили, а на їх місце сідали інші. І цей
  цикл ніяк не переривався, оскільки ніхто й не прагнув завершення. Чоловік, звично,
  \ не запам’ятовував жодної найменшої риси присутніх, однак чітко усвідомлював те,
  що тільки він залишався єдиновірним.</p>\n<p>Без упину Він читав Її, без тих пауз,
  впродовж яких можна було б двічі чи тричі прогнати тілом кисневі потоки. І тішився.
  Тішився тим ранком, днем, вечором, ранком, днем, вечором, ранком, днем вечором,
  ранком, днем, вечором, ранком, днем, вечором, ранком… Аж поки голос чергової медсестри
  швидким  темпом не гукнув його приєднатися до спільного сніданку з рештою пацієнтів.</p>\n<p>Тільки
  тепер він усвідомив,  що йому бракує Її.</p>\n\n    </index>\n\n    <div class=spacer></div>\n
  \   <div class=spacer></div>\n    <a href=#comments>Читати коментарі</a> (1)\n    <div
  class=spacer></div>\n    <div class=spacer></div>\n\n    <style>\n        table.rating
  {\n            border-collapse: collapse;\n            border-spacing: 0;\n            border-color:
  #ccc\n        }\n\n        table.rating td, table.rating th {\n            padding:
  3px 9px;\n        }\n\n        table.rating th {\n            text-align: center;\n
  \           font-size: 12px;\n            border-bottom: 1px solid #ccc\n        }\n
  \   </style>\n    <table class=rating border=0>\n        <tr>\n            <th style='border-right:
  1px solid #ccc'>Рейтинг</th>\n            \n            <th style='border-right:
  1px solid #ccc'>Оцінили\n            </th>\n            <th>Переглянули\n            </th>\n
  \       </tr>\n        <tr>\n            <td width=80\n                style='vertical-align:
  middle; font-size: 30px; text-align: center; border-right: 1px solid #ccc'>\n                5\n
  \           </td>\n            \n            <td style='vertical-align: top; border-right:
  1px solid #ccc'>\n                \n                    <a href='/users/profile/tek12'\n
  \                                                         style='color: #0a0'>О&#39;Брайен</a>\n
  \                       , <a href='/users/profile/otak'\n                                                          style='color:
  #0a0'>Оля Д&#39;оля</a>\n                        , <a href='/users/profile/warik666'\n
  \                                                         style='color: #0a0'>Роман
  Миронов</a>\n                        , <a href='/users/profile/pipa'\n                                                          style='color:
  #0a0'>Саша</a>\n                        , <a href='/users/profile/patrik7'\n                                                          style='color:
  #0a0'>Шон Маклех</a>. \n                \n            </td>\n            <td width=80
  style='vertical-align: middle; font-size: 30px; text-align: center; color: gray;'>\n
  \               28\n            </td>\n        </tr>\n    </table>\n\n\n\n        </div>\n
  \   </div>\n</div>\n<div id=\"right-container\">\n    <div id=\"right\">\n        \n
  \   <h2>Іванна Шкромида</h2>\n    <div class=spacer></div>\n    <a href=\"/users/profile/ne_ta_ale\">\n
  \       \n            <img class=userpic src=\"http://188.121.37.240:80/media/userpics/4556\"
  alt=\"\" class=userpic>\n        \n    </a>\n    <div class=spacer></div>\n    <div
  class=spacer></div>\n    <a href=\"/users/profile/ne_ta_ale\">Дивитися інфо &raquo;</a>\n
  \   <div class=spacer></div>\n    <div class=spacer></div>\n    \n    \n        Проза\n
  \       <div style='margin: 3px 0 12px 20px; padding: 0;'>\n            \n                <div
  style='margin-bottom: 4px; text-align: left;'><a\n                        href=\"/texts/show/31087/\">Кімната</a></div>\n
  \           \n                <div style='margin-bottom: 4px; text-align: left;'><a\n
  \                       href=\"/texts/show/30400/\">Літають замість</a></div>\n
  \           \n                <div style='margin-bottom: 4px; text-align: left;'><a\n
  \                       href=\"/texts/show/29633/\">Порохівниці  мого  тіла</a></div>\n
  \           \n                <div style='margin-bottom: 4px; text-align: left;'><a\n
  \                       href=\"/texts/show/27887/\">Межею</a></div>\n            \n
  \               <div style='margin-bottom: 4px; text-align: left;'><a\n                        href=\"/texts/show/27551/\">...
  вчора падав дощ</a></div>\n            \n        </div>\n    \n        Поезія\n
  \       <div style='margin: 3px 0 12px 20px; padding: 0;'>\n            \n                <div
  style='margin-bottom: 4px; text-align: left;'><a\n                        href=\"/texts/show/31272/\">Не
  в обличчя</a></div>\n            \n                <div style='margin-bottom: 4px;
  text-align: left;'><a\n                        href=\"/texts/show/31200/\">Міжсезоння</a></div>\n
  \           \n                <div style='margin-bottom: 4px; text-align: left;'><a\n
  \                       href=\"/texts/show/31155/\">Декади</a></div>\n            \n
  \               <div style='margin-bottom: 4px; text-align: left;'><a\n                        href=\"/texts/show/31116/\">Я
  тебе ще не знаю</a></div>\n            \n                <div style='margin-bottom:
  4px; text-align: left;'><a\n                        href=\"/texts/show/31055/\">Процес</a></div>\n
  \           \n                <div style='margin-bottom: 4px; text-align: left;'><a\n
  \                       href=\"/texts/show/31045/\">Зубожіння до кісток</a></div>\n
  \           \n                <div style='margin-bottom: 4px; text-align: left;'><a\n
  \                       href=\"/texts/show/30904/\">Сльота</a></div>\n            \n
  \               <div style='margin-bottom: 4px; text-align: left;'><a\n                        href=\"/texts/show/30798/\">Велетні</a></div>\n
  \           \n                <div style='margin-bottom: 4px; text-align: left;'><a\n
  \                       href=\"/texts/show/30747/\">Перевтрати</a></div>\n            \n
  \               <div style='margin-bottom: 4px; text-align: left;'><a\n                        href=\"/texts/show/30711/\">Чайкоподібна</a></div>\n
  \           \n                <div style='margin-bottom: 4px; text-align: left;'><a\n
  \                       href=\"/texts/show/30650/\">Ці весни нестрижені</a></div>\n
  \           \n                <div style='margin-bottom: 4px; text-align: left;'><a\n
  \                       href=\"/texts/show/30615/\">Придорожні рутини</a></div>\n
  \           \n                <div style='margin-bottom: 4px; text-align: left;'><a\n
  \                       href=\"/texts/show/30491/\">Займай місця</a></div>\n            \n
  \               <div style='margin-bottom: 4px; text-align: left;'><a\n                        href=\"/texts/show/30424/\">Подряпини
  короткочасності</a></div>\n            \n                <div style='margin-bottom:
  4px; text-align: left;'><a\n                        href=\"/texts/show/30358/\">Котячі
  сугестії</a></div>\n            \n                <div style='margin-bottom: 4px;
  text-align: left;'><a\n                        href=\"/texts/show/30328/\">Зникнення</a></div>\n
  \           \n                <div style='margin-bottom: 4px; text-align: left;'><a\n
  \                       href=\"/texts/show/30196/\">Стань мені послухом</a></div>\n
  \           \n                <div style='margin-bottom: 4px; text-align: left;'><a\n
  \                       href=\"/texts/show/30127/\">Завіса мільйонних</a></div>\n
  \           \n                <div style='margin-bottom: 4px; text-align: left;'><a\n
  \                       href=\"/texts/show/30054/\">Легка інвалідність</a></div>\n
  \           \n                <div style='margin-bottom: 4px; text-align: left;'><a\n
  \                       href=\"/texts/show/30024/\">Навмисно посеред ночі</a></div>\n
  \           \n                <div style='margin-bottom: 4px; text-align: left;'><a\n
  \                       href=\"/texts/show/29798/\">апатичне</a></div>\n            \n
  \               <div style='margin-bottom: 4px; text-align: left;'><a\n                        href=\"/texts/show/29751/\">сліпий
  листоноша</a></div>\n            \n                <div style='margin-bottom: 4px;
  text-align: left;'><a\n                        href=\"/texts/show/29605/\">Зі скреготу
  зим</a></div>\n            \n                <div style='margin-bottom: 4px; text-align:
  left;'><a\n                        href=\"/texts/show/29294/\">Нашу відстань ковтали
  ...</a></div>\n            \n                <div style='margin-bottom: 4px; text-align:
  left;'><a\n                        href=\"/texts/show/29241/\">Я не знаю, ким був
  ти...</a></div>\n            \n                <div style='margin-bottom: 4px; text-align:
  left;'><a\n                        href=\"/texts/show/29076/\">Канони відсутні</a></div>\n
  \           \n                <div style='margin-bottom: 4px; text-align: left;'><a\n
  \                       href=\"/texts/show/28974/\">У виграші - відстань</a></div>\n
  \           \n                <div style='margin-bottom: 4px; text-align: left;'><a\n
  \                       href=\"/texts/show/28929/\">Скільки життів ти зіграла?</a></div>\n
  \           \n                <div style='margin-bottom: 4px; text-align: left;'><a\n
  \                       href=\"/texts/show/28891/\">Білокрилі приблуди міжхмар&#39;я</a></div>\n
  \           \n                <div style='margin-bottom: 4px; text-align: left;'><a\n
  \                       href=\"/texts/show/28803/\">Тихо-тихо ідуть</a></div>\n
  \           \n                <div style='margin-bottom: 4px; text-align: left;'><a\n
  \                       href=\"/texts/show/28693/\">ці спазми в ногах...</a></div>\n
  \           \n                <div style='margin-bottom: 4px; text-align: left;'><a\n
  \                       href=\"/texts/show/28649/\">Сірість приховує справжніх</a></div>\n
  \           \n                <div style='margin-bottom: 4px; text-align: left;'><a\n
  \                       href=\"/texts/show/28127/\">Штиль</a></div>\n            \n
  \               <div style='margin-bottom: 4px; text-align: left;'><a\n                        href=\"/texts/show/28066/\">Протидіюче</a></div>\n
  \           \n                <div style='margin-bottom: 4px; text-align: left;'><a\n
  \                       href=\"/texts/show/28065/\">Ти вдома?</a></div>\n            \n
  \               <div style='margin-bottom: 4px; text-align: left;'><a\n                        href=\"/texts/show/27058/\">Досі
  в тобі , і досить  мені дорікати</a></div>\n            \n                <div style='margin-bottom:
  4px; text-align: left;'><a\n                        href=\"/texts/show/26967/\">На
  пристані</a></div>\n            \n                <div style='margin-bottom: 4px;
  text-align: left;'><a\n                        href=\"/texts/show/26715/\">осінь
  \ чіпляє  твоє  підборіддя  вереснем</a></div>\n            \n                <div
  style='margin-bottom: 4px; text-align: left;'><a\n                        href=\"/texts/show/26703/\">ти
  хотіла зігріти себе гарячим пластиліном</a></div>\n            \n                <div
  style='margin-bottom: 4px; text-align: left;'><a\n                        href=\"/texts/show/26633/\">янголи
  \ ,  що  живуть  навпроти,</a></div>\n            \n                <div style='margin-bottom:
  4px; text-align: left;'><a\n                        href=\"/texts/show/26520/\">місто
  грає тобою в шахи</a></div>\n            \n                <div style='margin-bottom:
  4px; text-align: left;'><a\n                        href=\"/texts/show/26289/\">тільки
  \ так  пахнуть  дощові  антени...</a></div>\n            \n                <div
  style='margin-bottom: 4px; text-align: left;'><a\n                        href=\"/texts/show/26276/\">під
  шкірою тягне</a></div>\n            \n                <div style='margin-bottom:
  4px; text-align: left;'><a\n                        href=\"/texts/show/26215/\">та
  кшталт &quot;компота&quot;</a></div>\n            \n                <div style='margin-bottom:
  4px; text-align: left;'><a\n                        href=\"/texts/show/26148/\">сонце
  під ногами</a></div>\n            \n                <div style='margin-bottom: 4px;
  text-align: left;'><a\n                        href=\"/texts/show/26145/\">ігри
  розуму</a></div>\n            \n                <div style='margin-bottom: 4px;
  text-align: left;'><a\n                        href=\"/texts/show/26082/\">мій візаві,
  ти схожий на витоки свіжого кисню</a></div>\n            \n                <div
  style='margin-bottom: 4px; text-align: left;'><a\n                        href=\"/texts/show/26046/\">прострація</a></div>\n
  \           \n                <div style='margin-bottom: 4px; text-align: left;'><a\n
  \                       href=\"/texts/show/26042/\">Краса в божевіллі</a></div>\n
  \           \n                <div style='margin-bottom: 4px; text-align: left;'><a\n
  \                       href=\"/texts/show/26002/\">між рекламних роликів</a></div>\n
  \           \n                <div style='margin-bottom: 4px; text-align: left;'><a\n
  \                       href=\"/texts/show/25974/\">сум&#39;яття</a></div>\n            \n
  \               <div style='margin-bottom: 4px; text-align: left;'><a\n                        href=\"/texts/show/25970/\">Псевдожиття</a></div>\n
  \           \n                <div style='margin-bottom: 4px; text-align: left;'><a\n
  \                       href=\"/texts/show/25968/\">Можеш  залишатися  загадковим
  </a></div>\n            \n                <div style='margin-bottom: 4px; text-align:
  left;'><a\n                        href=\"/texts/show/25941/\">Якби сни одягали
  в&#39;язані светри</a></div>\n            \n                <div style='margin-bottom:
  4px; text-align: left;'><a\n                        href=\"/texts/show/25940/\">Затримка
  бачення за вікном</a></div>\n            \n                <div style='margin-bottom:
  4px; text-align: left;'><a\n                        href=\"/texts/show/25939/\">Знаєш,
  я закохувалась у тебе тричі</a></div>\n            \n        </div>\n    \n    <div
  class=spacer></div>\n    <div class=spacer></div>\n\n    </div>\n</div>\n\n\n    \n\n
  \   <div class=spacer></div>\n    <div class=line></div>\n    <div id=\"bottom-container\">\n
  \       <div id=\"bottom\">\n\n            \n\n            <div id=\"qr\" class=\"yui-skin-sam\"
  style='display: none;'>\n    <form action=\"/comments/add/\" method=\"post\" id=\"add_comment_form\">\n
  \       <input type=hidden id=\"parent\" name=parent value=\"0\">\n        <input
  type=hidden name=target value=\"12:31087\">\n\n        \n            <table>\n                <tr>\n
  \                   <td>Ім'я</td>\n                    <td><input class=text type=text
  name=\"name\" value=\"\" size=25></td>\n                </tr>\n                <tr>\n
  \                   <td>E-mail</td>\n                    <td><input class=text type=text
  name=email value=\"\" size=25></td>\n                </tr>\n                <tr>\n
  \                   <td></td>\n                    <td>\n                        <small>На
  сайті не відображатиметься.<br>Сюди будуть надіслані відповіді на коментар<br><br>\n
  \                       </small>\n                    </td>\n                </tr>\n\n
  \               <tr>\n                    <td>Число</td>\n                    <td><input
  class=text type=text name=captcha_text value=\"\" size=6></td>\n                </tr>\n
  \               <tr>\n                    <td></td>\n                    <td><img
  id=\"captcha_img\">\n\n                        <div id=\"captcha_img_label\" style='display:
  none'>\n                            <small>Картинка з числом завантажується...</small>\n
  \                       </div>\n                    </td>\n                </tr>\n
  \           </table>\n            <input type=hidden name=captcha_sid id=\"captcha_sid\"
  value=\"5c9e2a9185b3376529823eccb3b2c8211777f909\">\n            <br>\n            Текст
  коментаря:\n            \n        <textarea id=\"comment\" name=\"comment\" rows=\"10\"
  style=\"width:100%\"></textarea>\n        <br>\n        <input id=\"save\" name=\"save\"
  value=\" Додати \" type=\"submit\">\n    </form>\n</div>\n\n            <center
  style='margin:12px;'>( <a onclick=\"quickReply('t'); return false;\"\n                                              style='text-decoration:
  none; color: #2d77aa' href=\".\">написати\n                коментар</a> ) </center>\n
  \           <div id=\"qrt\" style=\"margin-left:-200px; padding-left:50%;\"></div>\n
  \           <a name=\"comments\"></a>\n            \n                <a name=\"comment178240\"></a>\n
  \               \n                    <div class=comment style='margin-left: 0px'>\n
  \                       <table class=header width=100%>\n                            <tr>\n
  \                               <td>\n                                    \n                                        <img
  src=\"http://188.121.37.240:80/media/userpics/4729s\" alt=\"\" class=userpic>\n
  \                                   \n                                    \n                                </td>\n
  \                               <td width=100% class=info>\n                                    <a\n
  \                                           href=\"/users/profile/patrik7\">Шон
  Маклех</a>\n                                    \n                                    <br>\n
  \                                   <small>2013-04-26 01:50:39 </small>\n                                </td>\n
  \                               <td style='text-align: right; padding-right: 6px;
  vertical-align: top; font-size: 16px; font-weight: bold;'></td>\n                            </tr></table>\n
  \                       <div class=text><p>Дуже цікавий твір, дуже цікава стилістика.</p></div>\n
  \                       <a onclick=\"quickReply('178240'); return false;\"\n                           style='color:
  #2d77aa; text-decoration: none; font-size: 11px;' href=\".\">(відповісти)</a>\n\n
  \                       <div id=\"qr178240\" style='margin-left: 50px;'></div>\n
  \                   </div>\n                \n            \n            \n                <center
  style='margin:12px;'>\n                    ( <a onclick=\"quickReply('b'); return
  false;\" style='text-decoration: none; color: #2d77aa' href=\".\">написати коментар</a>
  )\n                    \n                </center>\n                <div id=\"qrb\"
  style=\"margin-left:-200px; padding-left:50%;\"></div>\n            \n        </div></div>\n\n\n\n<div
  id=\"footer\">\n    <p>&copy; Всі права на тексти належать їх авторам.<br>\n        &copy;
  <a href=\"mailto:litclubua@gmail.com\">LitClub</a>\n    </p>\n    \n</div>\n\n</body>\n</html>"
